^H:\VS\FENGXTOOLS\FENGXTOOLS\FENGXTOOLS\DEBUG\FENGXTOOLS.OBJ|H:\VS\FENGXTOOLS\FENGXTOOLS\FENGXTOOLS\DEBUG\STDAFX.OBJ
H:\VS\FENGXTOOLS\FENGXTOOLS\DEBUG\FENGXTOOLS.ILK
H:\VS\FENGXTOOLS\FENGXTOOLS\DEBUG\FENGXTOOLS.EXE
H:\VS\FENGXTOOLS\FENGXTOOLS\DEBUG\FENGXTOOLS.PDB
